…
Всі застосунки у датасеті належать до певної категорії (Category). Всього їх 34.
Проаналізуємо як застосунки разподілені між категоріями і як від цього залежить рейтинг.

``` r
grouped_by_category <- group_by(all_apps, Category)

app_categories <- summarize(grouped_by_category, 
              count = n(), 
              ratings = mean(Rating, na.rm=T))

app_categories
```

```R
# A tibble: 34 x 3
   Category            count ratings
   <fct>               <int>   <dbl>
 1 1.9                     1   19   
 2 ART_AND_DESIGN         62    4.36
 3 AUTO_AND_VEHICLES      73    4.19
 4 BEAUTY                 42    4.28
 5 BOOKS_AND_REFERENCE   178    4.35
 6 BUSINESS              303    4.12
 7 COMICS                 58    4.16
 8 COMMUNICATION         328    4.16
 9 DATING                195    3.97
10 EDUCATION             155    4.39
# ... with 24 more rows
```
…
